<?xml version="1.0" encoding="utf-8"?>
<!-- Generator: Adobe Illustrator 18.1.1, SVG Export Plug-In . SVG Version: 6.00 Build 0)  -->
<svg version="1.1" id="Layer_1" xmlns="http://www.w3.org/2000/svg" xmlns:xlink="http://www.w3.org/1999/xlink" x="0px" y="0px"
	 viewBox="0 0 1635.3 515.7" enable-background="new 0 0 1635.3 515.7" xml:space="preserve">
<symbol  id="logo" viewBox="-179.9 -45.8 359.8 91.5">
	<path fill="#626466" d="M-98.9-5.1c0-2.3,1-3,4.4-3c3.4,0,5,1,7.2,5.6h0.8l-0.8-7.2h-21.2v0.8c3.2,0.8,3.5,1.5,3.5,4.5v17.8
		c0,2.5-0.6,3.2-3.5,3.9v0.8h13.1v-0.8c-2.8-0.7-3.5-1.3-3.5-3.7V-5.1z"/>
	<path fill="#626466" d="M-77.5-5.8c0-1.8,0.9-2.8,2.9-3v-0.8h-11.3v0.8c2.4,0.5,3,1.1,3,3.4v9.5c0,2.2-0.6,2.8-3.2,3.3v0.8l7.8,0.7
		h0.8V-5.8z M-80.2,20.1c1.7,0,3.1-1.4,3.1-3.1c0-1.7-1.4-3.1-3.1-3.1c-1.7,0-3.1,1.4-3.1,3.1C-83.3,18.7-81.9,20.1-80.2,20.1"/>
	<path fill="#626466" d="M-65.9,4.4c1.8,1.7,2.8,2.1,4.2,2.1c3.2,0,5.3-3,5.3-7.4c0-5.8-2.7-8.2-6.6-8.2c-2.1,0-2.8,0.9-2.8,3V4.4z
		 M-65.9,20.1h-0.8l-7.3-0.5v-0.8c1.7-0.3,2.7-1.1,2.7-2.7V-9.7c2.7-0.5,5.4-0.7,8.7-0.7c8.7,0,12.1,4.6,12.1,10.1
		c0,5.2-3.7,9.3-8.5,9.3c-2.6,0-4.7-1-6.9-3.3V20.1z"/>
	<path fill="#626466" d="M-42.6,2c0.1,3.4,1.6,5.7,3.8,5.7c2.2,0,3.8-2.4,4-5.7H-42.6z M-29,0.9c-0.7,4.9-4.3,8.1-9.4,8.1
		c-5.6,0-10-4.2-10-9.8c0-5.5,4.2-9.5,9.8-9.5c4.3,0,8,2.4,9.6,6.2h-0.8C-31.5-6.8-33.6-8-36.2-8c-3.3,0-6.6,3-6.4,8.9H-29z"/>
	<path fill="#626466" d="M-11.8,2c-1.6,1.5-2.8,2.3-4,2.3c-1.6,0-2.6-0.7-4-2.6v-7.3c0-2.1,0.4-2.8,3-3.3v-0.8h-11.4v0.8
		c2.4,0.6,3,1.3,3,3.3v9.5c0,2.3-1,3.3-3.3,3.5v0.8l7.8,0.7h0.8V3.3h0.1c1.8,3.9,3.7,5.7,5.9,5.7c1.2,0,2.3-0.5,3.2-1.5L-11.8,2z"/>
	<path fill="#626466" d="M18.4,8.2V7.4c2.3-0.5,2.8-1.9,1.2-5.7L17.1-4l-3.8,7.8c-1.1,2.3-1.1,3.3,0.9,3.6v0.8H3.9H3.6h-5.2v6.9
		h-0.9c-2.5-3.2-5.5-6.1-7.7-7.5V6.8h3.2V-4.7c0-4.1,2.7-5.7,6.1-5.7c2.7,0,4.4,0.9,5.7,3.2L4.3-6.7c-0.9-1-1.7-1.4-2.6-1.4
		c-2.5,0-3.3,1.7-3.3,4.6V6.8h4.8c2.6,0,3.4-0.9,4.5-3.4l6.5-13.8c-2.2-5.9-4.1-8.3-7.4-8.3c-0.7,0-1.3,0-2.4,0.4l-1.1-5.4
		c0.7-0.1,1-0.1,1.5-0.1c3.7,0,5.7,1.6,7.6,5.9l9,20.6c1.5,3.3,2,4,4.3,4.6v0.8H18.4z"/>
	<path fill="#626466" d="M70.2-4.7c0.3-2.4,1.5-3.8,4.2-4.3v-0.8H60.7V-9c3,0.8,3.6,2.5,3,6.1L61.5,13h-0.1l-9-22.8h-1L42.5,13h-0.1
		L40-3.4c-0.5-3.2,0.1-5.4,3.3-5.6v-0.8H33.2V-9c3,0.1,4.3,1.8,4.9,6.1l2.8,18.1c-1.1,1.1-2.6,1.9-4,1.9v0.8h10l7.3-18.3l7.4,18.3
		h9.4v-0.8c-2.8-0.5-3.5-2-3.1-4.5L70.2-4.7z"/>
	<path fill="#626466" d="M76.6,4.2c0,2-0.7,2.7-2.8,3.1v0.8l7.4,0.7H82V-4.4c0-2.1,1.4-3.1,3.3-3.1c1.8,0,2.9,0.8,4.5,3.2v8.9
		c0,1.5-1,2.3-2.8,2.7v0.8l7.4,0.7h0.8V-5.5c0-2.4,0.5-2.9,2.9-3.6v-0.8l-8.2-0.7v4.4h-0.1c-2-3-4.2-4.4-7.1-4.4
		c-3.7,0-5.9,2-5.9,5.5V4.2z"/>
	<path fill="#626466" d="M102.1,6.7h-3.2v0.9c2.2,1.4,5.2,4.2,7.7,7.5h0.9V8.1h5.9V6.7h-5.9V-3.6c0-2.9,0.8-4.6,3.3-4.6
		c0.9,0,1.8,0.4,2.6,1.4l0.6-0.5c-1.3-2.2-3.1-3.2-5.7-3.2c-3.4,0-6.1,1.6-6.1,5.7V6.7z"/>
	<path fill="#626466" d="M116.8,4.2c0,2-0.7,2.7-2.8,3.1v0.8l7.4,0.7h0.8V-4.4c0-2.1,1.4-3.1,3.3-3.1c1.8,0,2.9,0.8,4.5,3.2v8.9
		c0,1.5-0.9,2.3-2.8,2.7v0.8l7.4,0.7h0.8V-5.5c0-2.4,0.5-2.9,2.8-3.6v-0.8l-8.2-0.7v4.4h-0.1c-2-3-4.2-4.4-7.1-4.4
		c-3.7,0-5.9,2-5.9,5.5V4.2z"/>
	<path fill="#626466" d="M150.5-6.7c-1.2-1.2-2.3-1.9-3.4-1.9c-1.5,0-2.5,1.3-2.5,3.2c0,2.4,1.4,3.5,5.8,5.4V-6.7z M155.9,2.1
		c0,4.9-4,6.7-7.9,6.7c-4.2,0-7.1-2.2-8-6.1h0.7c1.1,2,2.9,3,5.4,3c3.2,0,4.5-1.5,4.5-4.7C146.1-0.6,139-1,139-5.8
		c0-2.6,2.4-4.7,5.4-4.7c2.2,0,3.8,0.5,5.6,2.1l0.4,0.4c0.9-1.8,2.1-2.5,4.3-2.5c2.6,0,4.2,1.2,4.4,3.5h-0.8
		c-0.2-1.1-0.7-1.7-1.4-1.7c-0.8,0-1.1,0.7-1.1,2.4V2.1z"/>
	<path fill="#626466" d="M162.8,15c0,2.5-0.8,3.4-3.4,3.6v0.8l7.9,0.5h0.8V-5.5c0-2.4,0.5-2.9,3.2-3.6v-0.8h-11.9V-9
		c2.6,0.4,3.4,1.3,3.4,3.6V15z"/>
	<path fill="#212E60" d="M-114.9,9.2c-0.2,0.3-0.7,0.1-0.7,0.1l-8.3-3.1c-0.6,1.6-1.4,3.1-2.2,4.4l2.7,7.4c0,0,0.3,0.7,0,0.9
		c-0.3,0.2-0.8-0.3-0.8-0.3l-4.9-4c-1.9,2-4.2,3.7-6.7,4.9c-1,0.4-2,0.8-3,1.1l-1.5,5.8c0,0-0.1,0.6-0.5,0.6c-0.4,0-0.5-0.6-0.5-0.6
		l-1-5.2c-1.1,0.1-2.2,0.2-3.3,0.2c-3.7,0-6.9-0.7-9.8-2c-1.2-0.5-2.4-1.2-3.4-2c-0.2-0.1-0.3-0.3-0.5-0.4c-1,2.6-1.8,4.7-2,5.4
		c0.6,0.5,1.7,2.4,2,3.6c0.4,1.8,0.3,2.6-0.1,3.9c-0.3,1-0.9,1.9-0.9,2.5c0,0.5,0.3,0.8,0.5,1c-0.1,0.6-0.5,0.9-1,1
		c-0.5,0.1-0.8-0.1-1.2-0.1c-0.1,0.2-0.3,0.2-0.2,0.8c0.2,1,2.2,1.5,3.7,2.1c2,0.8,3.1,2.2,3.2,4.5c0,1.7-0.9,2.9-2.1,3.5
		c-0.2-0.7-1.2-1.6-1.9-2c-0.7-0.4-1.6-0.5-2.3-0.4c0.1,1.2-0.4,2.3-1.3,2.7c-0.3-0.5-1.4-1.3-3-1.2c-1.6,0-1.7,0.4-4,0.4
		c-3.3,0-6-2-6.3-4.9c-0.2-1.9,0.5-3.5,1.1-4.3c-0.4-0.3-1.4-1.2-1.5-1.5c-0.2,0.3-0.9,0.6-1.7,0.1c0.2-0.4,0.2-0.9,0.1-1.4
		c-0.1-0.5-1.3-2.8-1.5-4.7c-0.2-3.2,1.6-5.3,3.1-5.9c-0.3-0.5-0.4-1.1-0.2-1.5c0.2-0.3,0.5-0.6,1.1-0.6c-0.4-0.4-0.5-1-0.3-1.6
		c0.3-0.7,1.1-1.7,1.7-1.7c0-0.6,0.2-1.9,0.4-2.5c-0.2-0.4-0.5-0.8-0.4-1.6c0-0.8,0.6-1.5,1.3-1.7c0.2-0.4,0.3-0.9,0.5-1.1
		c0.2-0.3,0.4-0.6,1-0.9c0.5-0.3,1.1-0.6,1.8-0.6c0.7,0,1.3,0,1.6,0.1c0-0.2,0.1-2,0.2-4c-1.7-4.8-2.6-10.3-2.6-16.2v0
		c0-10.6,3-20.1,8.8-26.2c0,0,0.3-0.4,1.3-1c0,0,1.8,3.1,4.6,6.6c0.7,0.9,1.5,1.8,2.4,2.6c1.4,1.2,2.7,2.2,3.9,3.2
		c3.6,2.4,7.7,4.3,11.5,5.1c-4.4-2.3-6.8-3.5-10.9-7c-2.6-2.2-6.7-6.2-9.6-11.5c0.6-0.5,1.4-0.9,2.3-1c0.6,0.7,3.7,6.3,8.4,10.9
		c9.6,8.9,20.8,11,26.7,10.9c0.3,2.4,0.5,5,0.5,7.6c0,4.3-0.4,8.3-1.3,12.1l7,7.8C-115.2,8.4-114.7,8.9-114.9,9.2"/>
	<path fill="#FFFFFF" d="M-167.2,12.7c-0.4,0.2-1.5,0.8-2.4,0.7c-0.9,0-1.7-0.2-2.4-0.7c-0.3,0.2-0.4,0.6-0.2,1.1
		c0.2,0.5,0.5,0.5,0.5,0.5l-0.3,4.5c0,0,1.3,0.9,1.6,1c0.3,0.1,0.5,0.4,0.5,0.7c0.6-0.4,1.4-1.2,1.8-1.8c0.4-0.6,0.6-1.2,0.7-1.9
		c0-0.7,0-1.6-0.1-2.5c0.3-0.2,0.5-0.4,0.6-0.8C-166.9,13.2-167.1,13-167.2,12.7"/>
	<path fill="#FFFFFF" d="M-126.6-1.1c0,0.9-1.1,3.2-1.7,3.7l10.6,4.7L-126.6-1.1z"/>
	<path fill="#FFFFFF" d="M-155.6,16.4l9-8.1c-0.9-0.5-2.2-1.8-2.5-2.9L-155.6,16.4z"/>
	<path fill="#FFFFFF" d="M-150.4,0.3c-0.3-0.5-0.4-0.8-0.5-1.3c-0.1-0.6,0-0.9,0-1.4l-2.7,1.9c0,0.6-0.1,1.7-0.2,2.2
		c0,0.1,0,0.2,0,0.2L-150.4,0.3z"/>
	<path fill="#FFFFFF" d="M-165.5-0.5c-0.2,0.3-1,16.8-1,17.4l0.9,0.6v0.2c-0.6,0-1.4,0.3-1.6,0.7l-0.2,5.1c-0.9,0.1-1.8,0.4-2.1,0.7
		c-0.4,0.4-0.8,0.9-0.3,1.9c0.4-0.3,1.7-0.7,2.9-0.7c0.2,0,0.7-0.5,1-0.6c0.3-0.1,0.9-0.4,1.1-0.5c0.2-0.1,0.4-0.6,0.4-0.8
		c0.1-0.2,8.3-21.5,8.4-21.7c0.1-0.2,0.6-3.8,0.6-4.1c0-0.3,1.3-3.1,1.5-3.4c-1.1,0-2.9-0.6-4.3-2c-1.4-1.4-2.7-4.5-3-5.9
		C-161.3-13.1-165.3-0.8-165.5-0.5"/>
	<path fill="#FFFFFF" d="M-155.1-20.8c-0.4-3.3-1.1-6.1-2.3-8.1c-0.8-1.3-2.9-4-3.7-4.9c0.8,1.6,1.4,5.6,1.4,8.6
		c0,2-0.6,6.4-0.1,9.3c0.6,3.1,1.5,4.9,3.5,6.8c1.1,1,3.2,2.2,6.4,1.4l2.5-4.7c-1.3,0.3-3.1,0-4.3-0.9
		C-154-15.1-154.7-17.5-155.1-20.8"/>
	<path fill="#FFFFFF" d="M-154.9-27.3c0.6,1.4,1.4,5.3,1.6,6.6c0.3,1.7,0.6,4.1,2.6,5.8c1,0.8,2.6,0.9,3.3,0.7l2.8-5.8
		c0.3-0.6,1.1-0.8,1.7-0.8C-145.6-21.6-152.3-24.8-154.9-27.3"/>
	<path fill="#FFFFFF" d="M-130.6-8.7c-0.5-0.7-0.3-1.4,0-1.9c0.3-0.5,1.8-3.3,1.8-3.3c0.5-1.3,0.8-1.9,1.3-2.7c0.8,0,1.7,0,2.6,0
		c-1,2.2-3.3,6.5-3.3,6.5l-0.2,3.5C-129-7-130.2-8-130.6-8.7"/>
	<path fill="#FFFFFF" d="M-142.8,9.7c1.1,0.2,3.7,0,4.5-0.4l-2.6,14.6L-142.8,9.7z"/>
	<path fill="#FFFFFF" d="M-164.5,23.3c-0.1,0.2-0.2,0.7-0.4,0.8c-0.3,0.1-0.8,0.4-1.1,0.5c-0.3,0.1-0.8,0.6-1,0.6
		c-1.1,0-2.4,0.4-2.9,0.7c-0.5-0.9-0.1-1.4,0.3-1.9c0.3-0.3,1.3-0.6,2.1-0.7l0.2-5.1c0.2-0.4,1-0.6,1.6-0.6v-0.2l-0.9-0.6
		c0-0.6,0.8-17.1,1-17.4c0.2-0.3,4.2-12.6,4.3-13.3c0.3,1.4,1.6,4.5,3,5.9c1.5,1.4,3.2,2.1,4.3,2c-0.2,0.3-1.5,3.1-1.5,3.4
		c0,0.3-0.5,3.8-0.6,4.1C-156.2,1.8-164.4,23.1-164.5,23.3"/>
	<path fill="#FFFFFF" d="M-169.7,27.3c2.3,0,3.4-1,4-1.5c0.1,0.8-0.1,1.5-0.8,2.1c-0.6,0.5-1.7,0.9-3.3,0.9c-1.1,0-2.2-0.3-2.9-0.9
		c-0.6-0.5-0.7-1.1-0.6-2C-173.1,26.6-171.6,27.4-169.7,27.3"/>
	<path fill="#FFFFFF" d="M-173.8,39.5c-0.1-0.9,0.2-1.8,0.6-2.4c0.2-0.3,0.8-0.9,1.2-0.9c0.6,0,1.1,1.1,2.5,1.1
		c0.9,0,1.5-1.3,2.2-1.3c0.6,0,0.9,0.5,1.5,0.6c0.5,0.1,0.7-0.2,1-0.5c0.2,0.5,0.5,0.8,1.3,1.4c0.9,0.7,4,1.3,5.4,2.5
		c0.7,0.6,0.8,1.7,0.6,2.4c-0.5-0.7-1.9-1.5-3.3-1.5c-0.7,0-2.3,0.3-2.9,0.6c0.3,0.5,0.4,1.1,0.1,1.6c-0.4-0.3-2.4-0.5-3.1-0.5
		c-0.7,0-2.2,0.3-3.3,0.2C-172.6,42.7-173.7,40.9-173.8,39.5"/>
	<path fill="#FFFFFF" d="M-169.5,31.8c5.4-0.1,7.8-2.6,7.9-4.6c0.3,0.6,0.2,1.2,0.2,1.9c0,0.5-0.8,2.1-0.9,2.6
		c0,0.5,0.1,0.9,0.2,1.3c-0.3-0.1-1.5-0.5-2-0.1c-0.5,0.4-0.2,1.5-0.9,1.8c-0.7,0.3-1.8-0.6-2.6-0.5c-0.7,0.1-1.3,1.1-2.1,1.1
		c-0.8,0-1.1-0.9-2-1.1c-0.7-0.2-1.6,0.3-2,0.2c-0.5,0-0.7-0.4-0.9-0.8c-0.2-0.4-0.4-0.6-0.9-0.8c-0.4-0.1-1.1,0.3-1.4,0.2
		c0.2-0.2,0.4-1.2,0.1-1.8c-0.3-0.7-0.9-1.5-0.9-2.4c-0.1-0.8,0.2-1.1,0.4-1.7C-177.5,30-174.2,31.8-169.5,31.8"/>
	<path fill="#FFFFFF" d="M-172.9,21.5c-0.4-0.1-1.2-0.7-1.5-1.3c0.1-0.4,0.6-1.4,1-1.6c0.1,0.4,0.6,1.2,0.8,1.4
		c0.3,0.2,0.7,0.4,0.9,0.5c0.3,0.1,0.4,0.3,0.4,0.6c0,0.3,0,0.5-0.2,0.8c0.3,0,0.8,0,0.9,0.2c0.2,0.2,0.3,0.5,0.3,0.8
		c0,0.3-0.1,0.4-0.4,0.4c-0.3,0-1.2,0.1-1.6,0c0,0,0.7,0.4,0.9,0.5c0.2,0.1,0.3,0.3,0.3,0.5c0,0.2,0,0.6-0.1,1c-1,0-2.8-0.9-3.3-1.4
		l0.4-0.9l-0.7,0c-0.1-0.5,0-1.2,0.2-1.6C-174.1,21.5-173.4,21.5-172.9,21.5"/>
	<path fill="#FFFFFF" d="M-128.9,0.1c-0.1,0.7-1.8,2.6-4.6,4.8c-2.2,1.7-5.4,3.3-8.1,3.3c-4.5,0-6.3-3.1-6.7-4.7c-0.2-1-0.2-2,0-2.6
		c-0.7-0.6-1-1.1-1.1-1.8c-0.1-0.5,0-1.2,0.5-1.7c0,0.7,0.4,1.4,0.8,1.9c0.4,0.6,1.1,0.8,1.7,1.2l0.1-1.2c-0.6-0.3-1.3-1-1.3-1.4
		l0-2l1.5,0.9l0.3-0.6l-0.6-3.6l0.9,0.2l1.6-0.6l-1.5-1.3v-0.5c0,0,0.2,0.3,0.8,0.3c0.5,0,1.9-0.6,1.9-0.6l-0.1-0.3h-0.6h-2.1
		c-0.1-0.4,0.2-0.6,0.4-0.8c0.4,0.1,0.7,0.3,0.9,0.3c0.2,0,0.7-0.1,1.1-0.2l-0.5-0.7c0,0-0.3-0.2-0.7-0.1c-0.3,0.1-0.5-0.3-0.5-0.6
		c0-0.3,0.2-1.1,0.2-1.1c0.2-1.1,1.4-0.9,1.6-0.9c0.7,0.1,3.2,0.9,3.2,0.9l-2.3-3.3l1-3.5c1.5,0.6,6.1,2.3,11.1,3.1
		c-0.5,0.9-0.6,1.3-1.3,2.6l-2.6,5.9l0.4,0.9c0.6-0.2,1.4,0.2,2,0.7c0.6,0.5,1.2,1.3,1.5,1.8c-0.4,0.2-0.7,0.2-1-0.1
		c-0.3-0.2-0.5-0.6-1-0.4c-0.5,0.2-0.2,0.7-0.2,1.2c0.1,0.5-0.5,0.5-0.9,0.1c-0.4-0.4-1.3-0.2-1.8,0.4c-0.6,0.6-3.3,2.8-4.2,3.4
		c-1.4,0.8-3.3,1-4.6,0.8c-0.8-0.1-1.4-0.5-1.7-0.3l-1,1.6l0.2,0.1c0.4-0.2,0.7-0.4,1.2-0.3c0.5,0.2,1.9,0.5,3.3,0.5
		c2,0,4.5-0.7,5.6-1.2c0-1.3,2.7-3,3.9-3.2c1-0.1,1.6,0.1,2.2,0.5l-2.6,2.3l1.4,1.7c0,0,2.2-2.1,2.5-2.5
		C-128.8-0.5-128.9-0.1-128.9,0.1 M-144.6-2.5c0,0,1.1,0.6,2.2,0.9c1.6,0.3,3.3-0.6,4.5-1.6l-0.2-0.4l-1.8-0.4
		c-0.3,0.3-1,0.4-1.7,0.4c-0.6,0-1.1-0.3-1.1-0.3l0.3-0.6l-0.8-0.2c-0.4,0.5-0.9,1-1.4,1.2V-2.5z M-147.2,1.5
		c-0.5,1.5,0.8,3.1,1.3,3.6l0.9-2C-145.7,2.8-146.7,2-147.2,1.5 M-139.2,3.2c-0.8,0.6-3.5,0.5-4.6,0.2l-0.8,2.4
		c0.6,0.5,1.8,0.8,2.9,0.8c1.1,0,2.2-0.3,3.1-0.7L-139.2,3.2z M-133.9,0.8c-1.1,0.7-3.3,1.8-4,2l1,2.5c0.8-0.4,3.8-2.2,4.3-2.7
		L-133.9,0.8z"/>
	<path fill="#FFFFFF" d="M-134.2,7.5c1-0.4,3.1-2.2,3.7-2.6l5.4,11.5L-134.2,7.5z"/>
	<path fill="#626466" d="M176.8-3.5c1.6,0,3.1-1.3,3.1-3.2c0-1.9-1.5-3.2-3.1-3.2c-1.6,0-3.1,1.3-3.1,3.2
		C173.7-4.8,175.2-3.5,176.8-3.5 M176.8-9.2c1.3,0,2.4,1,2.4,2.5c0,1.5-1.1,2.5-2.4,2.5c-1.3,0-2.4-1-2.4-2.5
		C174.4-8.2,175.5-9.2,176.8-9.2 M175.6-5h1.3c0.9,0,1.3-0.3,1.3-1c0-0.6-0.4-0.9-0.9-0.9l0.9-1.5h-0.7L176.7-7h-0.5v-1.5h-0.6V-5z
		 M176.2-6.5h0.6c0.4,0,0.7,0.1,0.7,0.5c0,0.4-0.4,0.5-0.7,0.5h-0.6V-6.5z"/>
	<polygon fill="#626466" points="0.5,-20.8 -108,-20.8 -108,-19.6 0.5,-19.6 	"/>
	<polygon fill="#626466" points="171.8,-20.8 15.3,-20.8 15.3,-19.6 171.8,-19.6 	"/>
	<g>
		<path fill="#626466" d="M-45.5-30.3h2.8v-15.1h-2.8V-30.3z"/>
		<path fill="#626466" d="M-34.3-30.3h2.6l6.3-10.7h0v10.7h2.6v-15.1h-2.6l-6.3,10.7h0v-10.7h-2.6V-30.3z"/>
		<path fill="#626466" d="M-13.9-40.8c1.1-1.6,2.7-2.3,4.6-2.3c1.4,0,3.2,0.5,3.2,1.9c0,1.2-1.1,1.5-3.1,2l-1.7,0.4
			c-2.4,0.6-4.5,1.4-4.5,4.2c0,3.2,3,4.7,5.8,4.7c2.6,0,4.7-1,6.3-3l-2.4-1.8c-0.7,1.4-2.1,2.2-4,2.2c-1.6,0-2.9-0.6-2.9-1.7
			c0-1.3,1.4-1.5,3.1-1.9l1.8-0.4c2.2-0.5,4.4-1.4,4.4-4.3c0-3.7-3.5-5-6.6-5c-2.5,0-5.1,1.1-6.5,3.2L-13.9-40.8z"/>
		<path fill="#626466" d="M16.3-40.7c0-3.1-2.4-5-6.1-5c-3.6,0-6.1,1.9-6.1,5v10.4H7V-40c0-1.8,0.8-3,3.2-3c2.5,0,3.2,1.2,3.2,3v9.7
			h2.8V-40.7z"/>
		<path fill="#626466" d="M24.5-30.3h6.3c3.2,0,5.1-1.9,5.1-4.6c0-3.4-2.3-4.2-3-4.5l3.4-6.1h-3.3L30-39.8h-2.7v-5.6h-2.8V-30.3z
			 M27.3-37.3h3.1c1.4,0,2.5,0.8,2.5,2.3c0,1.4-0.9,2.3-2.9,2.3h-2.7V-37.3z"/>
		<path fill="#626466" d="M46.8-30.3h3.3l5-15.1h-3l-0.9,2.9h-5.7l-0.9-2.9h-3L46.8-30.3z M48.5-33L48.5-33L46.4-40h4.2L48.5-33z"/>
		<path fill="#626466" d="M61.6-30.3h2.6L70.5-41h0v10.7h2.6v-15.1h-2.6l-6.3,10.7h0v-10.7h-2.6V-30.3z"/>
		<path fill="#626466" d="M91-35.4c-0.2,1.7-1.6,2.8-3.3,2.8c-3,0-4.3-2.7-4.3-5.3c0-2.6,1.2-5.3,4.3-5.3c2,0,3.1,1.3,3.6,3.1
			l2.6-1.2c-1.2-3-3.2-4.5-6.2-4.5c-4.8,0-7.2,3.7-7.2,7.9c0,4.3,2.7,7.9,7.2,7.9c3,0,5.3-1.6,6.1-4.7L91-35.4z"/>
		<path fill="#626466" d="M100-30.3h10.7v-2.6h-7.8v-3.4h7.2v-2.5h-7.2v-3.9h8.4v-2.6H100V-30.3z"/>
	</g>
</symbol>
<use xlink:href="#logo"  width="359.8" height="91.5" x="-179.9" y="-45.8" transform="matrix(3.7995 0 0 -3.7995 767.0768 267.1147)" overflow="visible"/>
</svg>
